Analysing data with psborrow • psborrow
…
dat
#> # A tibble: 1,000 × 6
#>       pt grp      age sex     time event
#>    <int> <fct>  <dbl> <fct>  <dbl> <dbl>
#>  1     1 TRT    1.12  Female  64.0     1
#>  2     2 CC    -0.577 Female  14.3     0
#>  3     3 CC    -0.281 Female 190.      0
#>  4     4 CC    -0.371 Male   348.      0
#>  5     5 CC     1.29  Female  43.6     1
#>  6     6 EC    -0.840 Male    27.8     0
#>  7     7 EC     0.901 Female 706.      1
#>  8     8 TRT    0.906 Female 105.      1
#>  9     9 CC     1.43  Male    57.9     1
#> 10    10 TRT    2.75  Female  85.9     1
#> # … with 990 more rows

To conduct an analysis we need to use the apply_mcmc()
function. However to use this function we first need to convert our data
into the required format. Full details of the required format can be
found in help(apply_mcmc) however an example of this is
shown below:

dat2 <- dat %>%
    mutate(trt = ifelse(grp == "TRT", 1, 0)) %>%
    mutate(ext = ifelse(grp == "EC", 1, 0)) %>%
    mutate(cnsr = 1 - event) %>%
    select(pt, trt, ext, time, cnsr, sex, age)

dat2
#> # A tibble: 1,000 × 7
#>       pt   trt   ext  time  cnsr sex       age
#>    <int> <dbl> <dbl> <dbl> <dbl> <fct>   <dbl>
#>  1     1     1     0  64.0     0 Female  1.12 
#>  2     2     0     0  14.3     1 Female -0.577
#>  3     3     0     0 190.      1 Female -0.281
#>  4     4     0     0 348.      1 Male   -0.371
#>  5     5     0     0  43.6     0 Female  1.29 
#>  6     6     0     1  27.8     1 Male   -0.840
#>  7     7     0     1 706.      0 Female  0.901
#>  8     8     1     0 105.      0 Female  0.906
#>  9     9     0     0  57.9     0 Male    1.43 
#> 10    10     1     0  85.9     0 Female  2.75 
#> # … with 990 more rows
…
